…
### EXERCISE 2: group by country

```{r}
# Summarize by country: by_country
by_country <- votes_processed %>%
  group_by(country) %>%
  summarize(total = n(),
            percent_yes = mean(vote == 1))

# A tibble: 200 x 3
   country             total percent_yes
   <chr>               <int>       <dbl>
 1 Afghanistan          2373       0.859
 2 Albania              1695       0.717
 3 Algeria              2213       0.899
 4 Andorra               719       0.638
 5 Angola               1431       0.924
 6 Antigua and Barbuda  1302       0.912
 7 Argentina            2553       0.768
 8 Armenia               758       0.747
 9 Australia            2575       0.557
10 Austria              2389       0.622
# ... with 190 more rows
```
…
```{r}
by_country %>%
    arrange(percent_yes)

# Filter out countries with fewer than 100 votes
by_country %>%
  arrange(percent_yes) %>%
  filter(total >= 100)
```

The result (for the next chap), the percentage of the yes for each country:

```{r}
# A tibble: 197 x 3
   country                         total percent_yes
   <chr>                           <int>       <dbl>
 1 United States                    2568       0.269
 2 Palau                             369       0.339
 3 Israel                           2380       0.341
 4 Federal Republic of Germany      1075       0.397
 5 United Kingdom                   2558       0.417
 6 France                           2527       0.427
 7 Micronesia, Federated States of   724       0.442
 8 Marshall Islands                  757       0.491
 9 Belgium                          2568       0.492
10 Canada                           2576       0.508
# ... with 187 more rows
```
…
## 2.2 Visualizing by country

Mixing all the countries in one trend does not tells us much about international relations. If I want to plot the trend for only one country and plot.

Now you are going to summarize by both. 

First, group by by 2 vars, country and year, then  filter to only one country

```{r}
# Summarizing by year and country
by_year_country <- votes_processed %>%
    group_by(country, year) %>%
    summarize(total = n(), percent_yes = mean(vote == 1))

# A tibble: 4,744 x 4
# Groups:   year [?]
    year country                         total percent_yes
   <dbl> <chr>                           <int>       <dbl>
 1  1947 Afghanistan                        34       0.382
 2  1947 Argentina                          38       0.579
 3  1947 Australia                          38       0.553
 4  1947 Belarus                            38       0.5  
 5  1947 Belgium                            38       0.605
 6  1947 Bolivia, Plurinational State of    37       0.595
 7  1947 Brazil                             38       0.658
 8  1947 Canada                             38       0.605
 9  1947 Chile                              38       0.658
10  1947 Colombia                           35       0.543
# ... with 4,734 more rows
…
# Print the US_by_year data
US_by_year # Result 1

# Perform a linear regression of percent_yes by year: US_fit
US_fit <- lm(percent_yes ~ year, data = US_by_year)

# Perform summary() on the US_fit object
summary(US_fit) # Result 2
```

The result:

```{r}
>US_by_year
# A tibble: 34 x 4
    year country       total percent_yes
   <dbl> <chr>         <int>       <dbl>
 1  1947 United States    38       0.711
 2  1949 United States    64       0.281
 3  1951 United States    25       0.4  
 4  1953 United States    26       0.5  
 5  1955 United States    37       0.622
 6  1957 United States    34       0.647
 7  1959 United States    54       0.426
 8  1961 United States    75       0.507
 9  1963 United States    32       0.5  
10  1965 United States    41       0.366
# ... with 24 more rows
…
In these next 2 sessions, we are gonna discuss fitting many models, in particular, one model for each country

First, filter the by_year_country on every country, so that we could plot accordingly. But we gonna to do it for each country. To do this, we us **`nest()`** from the **`tidyr` **package.

```{r}
library(tidyr)
by_year_country %>%
    nest(-country)
    # "minus country" means nesting all of the columns except country, all the other columns has been nested into a variable called "data"
```

The result is here:

```{r}
# A tibble: 200 x 2
   country                         data             
   <chr>                           <list>           
 1 Afghanistan                     <tibble [34 x 3]>
 2 Argentina                       <tibble [34 x 3]>
 3 Australia                       <tibble [34 x 3]>
 4 Belarus                         <tibble [34 x 3]>
 5 Belgium                         <tibble [34 x 3]>
 6 Bolivia, Plurinational State of <tibble [34 x 3]>
 7 Brazil                          <tibble [34 x 3]>
 8 Canada                          <tibble [34 x 3]>
 9 Chile                           <tibble [34 x 3]>
10 Colombia                        <tibble [34 x 3]>
# ... with 190 more rows
```
…
The result:

```{r}
> country_coefficients
# A tibble: 399 x 6
   country     term         estimate std.error statistic       p.value
   <chr>       <chr>           <dbl>     <dbl>     <dbl>         <dbl>
 1 Afghanistan (Intercept) -11.1      1.47         -7.52 0.0000000144 
 2 Afghanistan year          0.00601  0.000743      8.09 0.00000000306
 3 Argentina   (Intercept)  -9.46     2.10         -4.50 0.0000832    
 4 Argentina   year          0.00515  0.00106       4.85 0.0000305    
 5 Australia   (Intercept)  -4.55     2.15         -2.12 0.0422       
 6 Australia   year          0.00257  0.00108       2.37 0.0242       
 7 Belarus     (Intercept)  -7.00     1.50         -4.66 0.0000533    
 8 Belarus     year          0.00391  0.000759      5.15 0.0000128    
 9 Belgium     (Intercept)  -5.85     1.52         -3.86 0.000522     
10 Belgium     year          0.00320  0.000765      4.19 0.000207     
# ... with 389 more rows
```
…
# Add p.adjusted column, then filter
filtered_countries <- slope_terms  %>%
  mutate(p.adjusted = p.adjust(p.value)) %>%
  filter(p.adjusted < .05)


```



```{r}
> filtered_countries
# A tibble: 61 x 7
   country             term  estimate std.error statistic    p.value p.adjusted
   <chr>               <chr>    <dbl>     <dbl>     <dbl>      <dbl>      <dbl>
 1 Afghanistan         year   0.00601  0.000743      8.09    3.06e-9    5.95e-7
 2 Argentina           year   0.00515  0.00106       4.85    3.05e-5    4.81e-3
 3 Belarus             year   0.00391  0.000759      5.15    1.28e-5    2.08e-3
 4 Belgium             year   0.00320  0.000765      4.19    2.07e-4    3.01e-2
 5 Bolivia, Plurinati~ year   0.00580  0.000966      6.01    1.06e-6    1.88e-4
 6 Brazil              year   0.00611  0.000817      7.48    1.64e-8    3.12e-6
 7 Chile               year   0.00678  0.000822      8.24    2.05e-9    3.99e-7
 8 Colombia            year   0.00616  0.000965      6.38    3.58e-7    6.56e-5
 9 Costa Rica          year   0.00654  0.000812      8.05    3.39e-9    6.54e-7
10 Cuba                year   0.00461  0.000721      6.40    3.43e-7    6.31e-5
# ... with 51 more rows
```
…
## 4.1 `inner_join()` of `dplyr`

uses  the `by` arg to note the column(s) they have in common

```{r}
votes_joined <- votes_processed %>%
    inner_join(descriptions, by = c("rcid", "session"))
```

```{r}
> votes_joined
# A tibble: 353,547 x 14
    rcid session  vote ccode  year country      date                unres    me
   <dbl>   <dbl> <dbl> <int> <dbl> <chr>        <dttm>              <chr> <dbl>
 1    46       2     1     2  1947 United Stat~ 1947-09-04 00:00:00 R/2/~     0
 2    46       2     1    20  1947 Canada       1947-09-04 00:00:00 R/2/~     0
 3    46       2     1    40  1947 Cuba         1947-09-04 00:00:00 R/2/~     0
 4    46       2     1    41  1947 Haiti        1947-09-04 00:00:00 R/2/~     0
 5    46       2     1    42  1947 Dominican R~ 1947-09-04 00:00:00 R/2/~     0
 6    46       2     1    70  1947 Mexico       1947-09-04 00:00:00 R/2/~     0
 7    46       2     1    90  1947 Guatemala    1947-09-04 00:00:00 R/2/~     0
 8    46       2     1    91  1947 Honduras     1947-09-04 00:00:00 R/2/~     0
 9    46       2     1    92  1947 El Salvador  1947-09-04 00:00:00 R/2/~     0
10    46       2     1    93  1947 Nicaragua    1947-09-04 00:00:00 R/2/~     0
# ... with 353,537 more rows, and 5 more variables: nu <dbl>, di <dbl>,
#   hr <dbl>, co <dbl>, ec <dbl>
```
…
```{r}
library(tidyr)

votes_gathered <- votes_joined %>%
# names of key and value, gather thru "me" to "ec"
    gather(topic, has_topic, me:ec) %>%
# But not all key has a TRUE value, so filter out
    fitler(has_topic == 1)
```

The result:

```{r}
> votes_gathered
# A tibble: 350,032 x 10
    rcid session  vote ccode  year country     date                unres  topic
   <dbl>   <dbl> <dbl> <int> <dbl> <chr>       <dttm>              <chr>  <chr>
 1    77       2     1     2  1947 United Sta~ 1947-11-06 00:00:00 R/2/1~ me   
 2    77       2     1    20  1947 Canada      1947-11-06 00:00:00 R/2/1~ me   
 3    77       2     3    40  1947 Cuba        1947-11-06 00:00:00 R/2/1~ me   
 4    77       2     1    41  1947 Haiti       1947-11-06 00:00:00 R/2/1~ me   
 5    77       2     1    42  1947 Dominican ~ 1947-11-06 00:00:00 R/2/1~ me   
 6    77       2     2    70  1947 Mexico      1947-11-06 00:00:00 R/2/1~ me   
 7    77       2     1    90  1947 Guatemala   1947-11-06 00:00:00 R/2/1~ me   
 8    77       2     2    91  1947 Honduras    1947-11-06 00:00:00 R/2/1~ me   
 9    77       2     2    92  1947 El Salvador 1947-11-06 00:00:00 R/2/1~ me   
10    77       2     1    93  1947 Nicaragua   1947-11-06 00:00:00 R/2/1~ me   
# ... with 350,022 more rows, and 1 more variable: has_topic <dbl>
```
…
# Summarize the percentage "yes" per country-year-topic
by_country_year_topic <- votes_tidied %>%
    group_by(country, year, topic) %>%
    summarize(total = n(), percent_yes = mean(vote ==1)) %>%
    ungroup()

# Print by_country_year_topic
by_country_year_topic
```

The result:

```{r}
> by_country_year_topic
# A tibble: 26,968 x 5
   country      year topic                                total percent_yes
   <chr>       <dbl> <chr>                                <int>       <dbl>
 1 Afghanistan  1947 Colonialism                              8       0.5  
 2 Afghanistan  1947 Economic development                     1       0    
 3 Afghanistan  1947 Human rights                             1       0    
 4 Afghanistan  1947 Palestinian conflict                     6       0    
 5 Afghanistan  1949 Arms control and disarmament             3       0    
 6 Afghanistan  1949 Colonialism                             22       0.864
 7 Afghanistan  1949 Economic development                     1       1    
 8 Afghanistan  1949 Human rights                             3       0    
 9 Afghanistan  1949 Nuclear weapons and nuclear material     3       0    
10 Afghanistan  1949 Palestinian conflict                    11       0.818
# ... with 26,958 more rows
```

If I do not ungroup the by_country_year_topic, the group will remain and displayed in the result

```{r}
# Summarize the percentage "yes" per country-year-topic
by_country_year_topic <- votes_tidied %>%
    group_by(country, year, topic) %>%
    summarize(total = n(), percent_yes = mean(vote ==1)) 
    # %>% ungroup(), do not ungroup

# Print by_country_year_topic
by_country_year_topic

# A tibble: 26,968 x 5
# Groups:   country, year [?]
   country      year topic                                total percent_yes
   <chr>       <dbl> <chr>                                <int>       <dbl>
 1 Afghanistan  1947 Colonialism                              8       0.5  
 2 Afghanistan  1947 Economic development                     1       0    
 3 Afghanistan  1947 Human rights                             1       0    
 4 Afghanistan  1947 Palestinian conflict                     6       0    
 5 Afghanistan  1949 Arms control and disarmament             3       0    
 6 Afghanistan  1949 Colonialism                             22       0.864
 7 Afghanistan  1949 Economic development                     1       1    
 8 Afghanistan  1949 Human rights                             3       0    
 9 Afghanistan  1949 Nuclear weapons and nuclear material     3       0    
10 Afghanistan  1949 Palestinian conflict                    11       0.818
# ... with 26,958 more rows
```
…
# Print country_topic_coefficients
country_topic_coefficients
```

The result:

```{r}
> country_topic_coefficients
# A tibble: 2,383 x 7
   country     topic             term     estimate std.error statistic  p.value
   <chr>       <chr>             <chr>       <dbl>     <dbl>     <dbl>    <dbl>
 1 Afghanistan Colonialism       (Interc~ -9.20e+0  1.96         -4.70  4.76e-5
 2 Afghanistan Colonialism       year      5.11e-3  0.000989      5.17  1.23e-5
 3 Afghanistan Economic develop~ (Interc~ -1.15e+1  3.62         -3.17  3.49e-3
 4 Afghanistan Economic develop~ year      6.24e-3  0.00183       3.42  1.85e-3
 5 Afghanistan Human rights      (Interc~ -7.27e+0  4.37         -1.66  1.06e-1
 6 Afghanistan Human rights      year      4.08e-3  0.00221       1.85  7.43e-2
 7 Afghanistan Palestinian conf~ (Interc~ -1.33e+1  3.57         -3.73  8.66e-4
 8 Afghanistan Palestinian conf~ year      7.17e-3  0.00180       3.98  4.42e-4
 9 Afghanistan Arms control and~ (Interc~ -1.38e+1  4.13         -3.33  2.53e-3
10 Afghanistan Arms control and~ year      7.37e-3  0.00208       3.54  1.49e-3
# ... with 2,373 more rows
```
…
### EXERCISE 6: Steepest *downward* trends by topic

```{r}
arrange(country_topic_filtered, estimate)
```

The result:

```{r}
# A tibble: 56 x 8
   country       topic    term  estimate std.error statistic p.value p.adjusted
   <chr>         <chr>    <chr>    <dbl>     <dbl>     <dbl>   <dbl>      <dbl>
 1 Vanuatu       Palesti~ year  -0.0327    0.00516     -6.33 2.60e-5  0.0295   
 2 Vanuatu       Colonia~ year  -0.0179    0.00271     -6.60 2.53e-5  0.0288   
 3 Malta         Nuclear~ year  -0.0112    0.00137     -8.15 3.14e-8  0.0000370
 4 Cyprus        Human r~ year  -0.0108    0.00196     -5.48 1.22e-5  0.0141   
 5 United States Palesti~ year  -0.0107    0.00194     -5.51 6.85e-6  0.00793  
 6 Cyprus        Nuclear~ year  -0.0107    0.00172     -6.20 1.76e-6  0.00206  
 7 Israel        Colonia~ year  -0.00953   0.00177     -5.38 7.19e-6  0.00831  
 8 Romania       Human r~ year  -0.00945   0.00185     -5.11 2.26e-5  0.0259   
 9 Malta         Arms co~ year  -0.00930   0.00109     -8.51 1.46e-8  0.0000172
10 Cyprus        Arms co~ year  -0.00878   0.00123     -7.13 1.80e-7  0.000211 
# ... with 46 more rows
```
…
