…
Write a pipe that combines `artists`, `bands`, `songs`, and `albums` (in that order) into a single table, such that it contains *all* of the information in the datasets.

```{r}
# Create one table that combines all information
# simply call full_join() three times
c <- c("first", "last")
artists %>% full_join(bands,by = c) %>%
    full_join(songs,by = c) %>%
    full_join(albums,by = c("band", "album"))
```



```{r}
# A tibble: 29 x 7
   first  last     instrument band            song         album            year
   <chr>  <chr>    <chr>      <chr>           <chr>        <chr>           <int>
 1 Jimmy  Buffett  Guitar     The Coral Reef~ <NA>         <NA>               NA
 2 George Harrison Guitar     The Beatles     <NA>         <NA>               NA
 3 Mick   Jagger   Vocals     The Rolling St~ <NA>         <NA>               NA
 4 Tom    Jones    Vocals     <NA>            Its Not Un~  Along Came Jon~    NA
 5 Davy   Jones    Vocals     <NA>            <NA>         <NA>               NA
 6 John   Lennon   Guitar     The Beatles     Come Togeth~ Abbey Road       1969
 7 Paul   McCartn~ Bass       The Beatles     Hello, Good~ Magical Myster~  1967
 8 Jimmy  Page     Guitar     Led Zeppelin    <NA>         <NA>               NA
 9 Joe    Perry    Guitar     <NA>            <NA>         <NA>               NA
10 Elvis  Presley  Vocals     <NA>            <NA>         <NA>               NA
# ... with 19 more rows
```
…
### EXERCISE 2: Bind columns

Let's make a compilation of Hank Williams' 67 singles. To do this, you can use `hank_years` and `hank_charts`:

- `hank_years` contains the name and release year of each of Hank Williams' 67 singles.
- `hank_charts` contains the name of each of Hank Williams' 67 singles as well as the highest position it earned on the Billboard sales charts.

Each dataset contains the same songs, but `hank_years` is arranged chronologically by year, while `hank_charts` is arranged alphabetically by song title.

```{r}
> hank_years
# A tibble: 67 x 2
    year song                                   
   <int> <chr>                                  
 1  1947 Move It On Over                        
 2  1947 My Love for You (Has Turned to Hate)   
 3  1947 Never Again (Will I Knock on Your Door)
 4  1947 On the Banks of the Old Ponchartrain   
 5  1947 Pan American                           
 6  1947 Wealth Won_t Save Your Soul            
 7  1948 A Mansion on the Hill                  
 8  1948 Honky Tonkin_                          
 9  1948 I Saw the Light                        
10  1948 I_m a Long Gone Daddy                  
# ... with 57 more rows
> hank_charts
# A tibble: 67 x 2
   song                             peak
   <chr>                           <int>
 1 (I Heard That) Lonesome Whistle     9
 2 (I_m Gonna) Sing, Sing, Sing       NA
 3 A Home in Heaven                   NA
 4 A Mansion on the Hill              12
 5 A Teardrop on a Rose               NA
 6 At the First Fall of Snow          NA
 7 Baby, We_re Really in Love          4
 8 California Zephyr                  NA
 9 Calling You                        NA
10 Cold, Cold Heart                    1
# ... with 57 more rows
```
…
The result:

```{r}
# A tibble: 59 x 2
   var          n
   <chr>    <int>
 1 yearID      21
 2 playerID    19
 3 lgID        17
 4 teamID      13
 5 G           10
 6 L            6
 7 W            6
 8 BB           5
 9 CS           5
10 GS           5
# ... with 49 more rows
```
…
```{r}
players %>% 
  # Find all players who do not appear in Salaries
  anti_join(Salaries, by = "playerID") %>% 
  # Join them to Appearances
  left_join(Appearances, by = "playerID") %>% 
  # Calculate total_games for each player
  group_by(playerID) %>%
  summarize(total_games = sum(G_all, is.na = F)) %>%
  # Arrange in descending order by total_games
  arrange(desc(total_games))
```

```{r}
# A tibble: 13,958 x 2
   playerID  total_games
   <chr>           <int>
 1 yastrca01        3309
 2 aaronha01        3299
 3 cobbty01         3035
 4 musiast01        3027
 5 mayswi01         2993
 6 robinbr01        2897
 7 kalinal01        2835
 8 collied01        2825
 9 robinfr02        2809
10 wagneho01        2796
# ... with 13,948 more rows
```
…
```{r}
# A tibble: 13,958 x 2
   playerID  total_at_bat
   <chr>            <int>
 1 aaronha01        12364
 2 yastrca01        11988
 3 cobbty01         11434
 4 musiast01        10972
 5 mayswi01         10881
 6 robinbr01        10654
 7 wagneho01        10430
 8 brocklo01        10332
 9 ansonca01        10277
10 aparilu01        10230
# ... with 13,948 more rows
```
…
